module github.com/grpc-ecosystem/grpc-gateway/v2

go 1.17

require (
	github.com/antihax/optional v1.0.0
	github.com/golang/glog v1.0.0
	github.com/golang/protobuf v1.5.2
	github.com/google/go-cmp v0.5.6
	github.com/rogpeppe/fastuuid v1.2.0
	golang.org/x/oauth2 v0.0.0-20211104180415-d3ed0bb246c8
	google.golang.org/genproto v0.0.0-20211206160659-862468c7d6e0
	google.golang.org/grpc v1.42.0
	google.golang.org/protobuf v1.27.1
	sigs.k8s.io/yaml v1.3.0
)

require (
	golang.org/x/net v0.0.0-20210405180319-a5a99cb37ef4 // indirect
	golang.org/x/sys v0.0.0-20210510120138-977fb7262007 // indirect
	golang.org/x/text v0.3.5 // indirect
	golang.org/x/xerrors v0.0.0-20200804184101-5ec99f83aff1 // indirect
	google.golang.org/appengine v1.6.6 // indirect
	gopkg.in/yaml.v2 v2.4.0 // indirect
)
